/home/daniel/Java/Job/smetner/test-app-for-smetner/src/test/java/com/staxter/TestApplicationTests.java
/home/daniel/Java/Job/smetner/test-app-for-smetner/src/test/java/com/staxter/api/UserControllerTest.java
/home/daniel/Java/Job/smetner/test-app-for-smetner/src/test/java/com/staxter/utils/JsonUtil.java
